<?xml version="1.0" encoding="UTF-8"?>
<CustomTab xmlns="http://soap.sforce.com/2006/04/metadata">
    <auraComponent>sellingPriceTabMashup</auraComponent>
    <description>Average Selling Price Analysis - Tableau report launch from tab</description>
    <label>Average Selling Price Analysis</label>
    <mobileReady>false</mobileReady>
    <motif>Custom57: Building Block</motif>
</CustomTab>
