<?xml version="1.0" encoding="UTF-8"?>
<CustomTab xmlns="http://soap.sforce.com/2006/04/metadata">
    <description>Created by Lightning App Builder</description>
    <flexiPage>Buying_Group_Grid</flexiPage>
    <label>Buying Group Grid</label>
    <mobileReady>true</mobileReady>
    <motif>Custom55: Books</motif>
</CustomTab>
