<?xml version="1.0" encoding="UTF-8"?>
<CustomTab xmlns="http://soap.sforce.com/2006/04/metadata">
    <auraComponent>priceGridTabMashup</auraComponent>
    <description>Price Grids tableau</description>
    <label>Price Grids</label>
    <mobileReady>false</mobileReady>
    <motif>Custom95: Stopwatch</motif>
</CustomTab>
