<?xml version="1.0" encoding="UTF-8"?>
<CustomTab xmlns="http://soap.sforce.com/2006/04/metadata">
    <label>ConstructConnect Help</label>
    <mobileReady>false</mobileReady>
    <motif>Custom71: Headset</motif>
    <page>rdcc__ConstructConnectHelpPage</page>
</CustomTab>
