<?xml version="1.0" encoding="UTF-8"?>
<CustomTab xmlns="http://soap.sforce.com/2006/04/metadata">
    <label>Insight: Projects</label>
    <mobileReady>false</mobileReady>
    <motif>Custom24: Building</motif>
    <page>rdcc__Redirect_Project</page>
</CustomTab>
